358450070734947
868204021015184
353145063088658
868204021610760
868204021609150
868204021612253
868204021443089
868204021608558
868204021608624
868204021612527
868204021608731
868204021443147
868204021608749
868204021608822
868204021608772
868204021612550
868204021443014
868204021612675
868204021443238
868204021257943
868204021091987
868204021038848
868204021035182
359980060266707
868204021011043
868204021608517
868204021443261
868204021608780
868204021443386
868204021443188
868204021612626
868204021608798
868204021610810
868204021610794
868204021608590
868204021608657
358295062621234
351527070474546
860319030652054
868204021442818
868204021442685
868204021442719
868204021442743
868204021610711
868204021442800
868204021610836
868204021610034
868204021615470
868204021610182
868204021610091
868204021036149
865381026082543
868204021038996
868204021443436
868204021443378
868204021443402
868204021609549
868204021438667
868204021609721
868204021442917
868204021442909
868204021442941
868204021615421
359427052542349
868204021257133
353145062443755
868204021033179
868204021041073
868204021443105
868204021610703
868204021610380
868204021610109
868204021610166
868204021610190
868204021611016
868204021610919
868204021610935
868204021615314
868204021615439
868204021615306
868204021442677
868204021615389
868204021443527
868204021443501
868204020432455
868204021017495
868204021608962
868204021615231
868204021610729
868204021615256
868204021443543
868204021443485
868204021442057
868204021443477
868204021441067
868204021442792
868204021443394
868204021443600
868204021443493
868204021442008
868204021615520
868204021615462
868204021615587
868204021615561
868204021615058
868204020800677
868204020773866
358310050446948
868204021610950
868204021615405
868204021611735
868204021612287
868204021611743
868204021611982
868204021612121
868204021611925
868204021611826
868204021616304
868204021614622
868204021611883
868204021616213
868204021616635
868204021613525
868204021440937
868204021615017
868204021615116
868204021611719
868204021612261
868204021611669
868204021615041
868204021611776
868204021611594
868204021615595
868204021615090
868204021612246
868204021614986
868204021611289
868204021611586
868204021611578
868204021615033
868204021616627
868204021617013
868204021611206
868204021611453
868204021615082
868204021611693
868204021616932
868204021612337
868204021611446
868204021611396
868204021616247
868204021612311
868204021611800
868204021615132
868204021610802
868204021033989
358242070362187
868204021272660
868204021272645
868204021272710
868204021446926
868204021611370
868204021611602
868204021611867
868204021440861
868204021611198
868204021611420
868204021441042
868204021442834
868204021442149
868204021441430
868204021442461
868204021440812
868204021611354
868204021610869
868204021611222
868204021611297
868204021612642
868204021610976
868204021611313
868204021610844
868204021442651
868204021612659
868204021612733
868204021612766
868204021612709
868204021611032
868204021612683
868204021612741
868204021611107
868204021612832
868204021612667
868204021611156
868204021441380
868204021611057
868204021610901
868204021608889
868204021442552
868204021258685 
868204021039218
358450071648989
868204021442602
868204021441398
868204021442404
868204021442628
868204021442230
868204021442453
868204021441828
868204021442636
868204021442560
868204021442586
868204021442578
868204021609929
868204021443246
868204021612485
868204021612493
868204021442396
868204021612360
868204021612345
868204021613434
868204021616965
868204022156011
868204021617179
868204021120091
359427051957530
868204021442610

868204021442610
868204021616825
868204021617195
868204021612170
868204021612386
868204021612071
868204022441363
868204021612147
868204021616999
868204021612105
868204021442594
868204021616973
868204021613053
868204021612113
868204021611933
868204021613459
868204021613384
868204021613566
868204021613335
868204021613038
868204021613319
868204021612006
868204021616536
868204021617187
868204021613608
868204021612139
868204021611941
868204021612030
868204021613095
868204021612378
868204021612394
868204021442529
868204021442263
868204021612436
868204021442693
868204021612402
868204021442198
868204021442545
868204021442701
868204021442479
868204021442727
868204021610620
868204021610752
868204021608608
868204021439855
868204021441455
868204021441653
868204021610778
868204021612097
868204021612501
868204021122626 
868204021436190
864782028461539
358450071935626
869758009375414
358242070161365
868204021062079
868204021439251
860319030648094
866735023015286
866735023015526
866735023018603
866735023017365
866735023017001
868204021439624
866735023017100
868204021033955
868204021443279
868204021443253
868204021616890
868204021608707
868204021610745
868204021610562
868204021610737
868204021610638
868204021617245
868204021617229
868204021617252
868204021616866
868204021616874
868204021616908
868204021616809
868204021610687
868204021616817
868204021617021
868204021615553
868204021610661
868204021616882
868204021610695
868204021616940
868204021610596
868204021609648
868204021616858
868204021616981
868204021609614
868204021609630
868204021616668
868204021608582
868204021616411
868204021616767
868204021609655
868204021609606
868204021616841
868204021609671
868204021610992
868204021609697
868204021610927
868204021609598
868204021616775
868204021609689
868204021610943
868204021441570
868204021611271
868204021611123
868204021611321
868204021614275
868204021614374
868204021611099
868204021611255
868204021614259
868204021614390
868204021614382
868204021611305
868204021611263
868204021611149
868204021613913
868204021614333
868204021614267
868204021611552
868204021611115
868204021608533
868204021611487
868204021609085
868204021609523
868204021614408
868204021611065
868204021611529
868204021614234
868204021609416
868204021611511
868204021609101
868204021614085
868204021612931
868204021613855
868204021608848
868204021614010
868204021613780
868204021614028
868204021612964
868204021613673
868204021608442
868204021612600
868204021608426
868204021613020
868204021612972
868204021608830
868204021612923
868204021612956
868204021609093
868204021608855
868204021609044
868204021613731
868204021614101
868204021612949
868204021613863
868204021612790
868204021612782
868204021609077
868204021608871
868204021609143
868204021612022
868204021611909
868204021611974
868204021611990
868204021612089
868204021611792
868204021616585
868204021616577
868204021614440
868204021616601
868204021616593
868204021614200
868204021616528
868204021616486
868204021614424
868204021612055
868204021611917
868204021612048
868204021612063
868204021615264
868204021616080
868204021616072
868204021615173
868204021616106
868204021616064
868204021615322
868204021614911
868204021616155
868204021615926
868204021442891
868204021615280
868204021615363
868204021615199
868204021442883
868204021441877
868204021615298
868204021616353
868204021616031
868204021616098
868204021616130
868204021443311
868204021443634
868204021609804
868204021610059
868204021610406
868204021614002
868204021610471
868204021610026
868204021610083
868204021610547
868204021610521
868204021610075
868204021610554
868204021610513
868204021610505
868204021610125
868204021610158
868204021610422
868204021610430
868204021610133
868204021609333
868204021610455
868204021610117
868204021616478
868204021616171
868204021611859
868204021616502
868204021614341
868204021614499
868204021614465
868204021614366
868204021614481
868204021442966
868204021615348
868204021443592
868204021615330
868204021443139
868204021443048
868204021438824
868204021615645
868204021614648
868204021616197
868204021616270
868204021614879
868204021615579
868204021615629
868204021608616
868204021438865
868204021615611
868204021609242
868204021608475
868204021609192
868204021439004
868204021609010
868204021608954
868204021608863
868204021616312
868204021616189
868204021616205
868204021616320
868204021616296
868204021616262
868204021616254
868204021615637
868204021608459
868204021439012
868204021439194
868204021439152
868204021609309
868204021438774
868204021438840
868204021439129
868204021438857
868204022441249
868204021616288
868204021609226
868204021609218
868204021609267
868204021609069
868204021609002
868204021608913
868204021608640
868204021608996
868204021608939
868204021613475
868204021615454
868204021609028
868204021609036
868204021615413
868204021612204
868204021612220
868204021614671
868204021612196
868204021612188
868204021612238
868204021612329
868204021612295
868204021612303
868204021615355
868204021612279
868204021443030
868204021443444
868204021443329
868204021443097
868204021443303
868204021615538
868204021612162
868204021441679
868204021443113
868204021443428
868204021615769
868204021615678
868204021615793
868204021608905
868204021608806
868204021608988
868204021608632
868204021608699
868204021609978
868204021610000
868204021608764
868204021609960
868204021609937
868204021608723
868204021608673
868204021608897
868204021608921
868204021608947
868204021609424
868204021610828
868204021610588
868204021609796
868204021610539
868204021610893
868204021610786
868204021615728
868204021615694
868204021615702
868204021610653
868204021610414
868204021615777
868204021615686
868204021615785
868204021615801
868204021443576
868204021440945
868204021609663
868204021608814
868204021609820
868204021609747
868204021611438
868204021611503
868204021611495
868204021609713
868204021609754
868204021609705
868204021609739
868204021609812
868204021609788
868204021615991
868204021611404
868204021611537
868204021611230
868204021615751
868204021615744
868204021616049
868204021610349
868204021615959
868204021616007
868204021610323
868204021615249
868204021610489
868204021610463
868204021615892
868204021610612
868204021610448
868204021615736
868204021610679
868204021610570
868204021615108
868204021609879
868204021610497
868204021614580
868204021614473
868204021608970
868204021614606
868204021614697
868204021609317
868204021614754
868204021608509
868204021609432
868204021609762
868204021608491
868204021608756
868204021614655
868204021614739
868204021609366
868204021608483
868204021609325
868204021609341
868204021609275
868204021614663
868204021614770
868204021613772
868204021608467
868204021609291
868204021614515
868204021614531
868204021614507
868204021614556
868204021614564
868204021613970
868204021614523
868204021614549
868204021614572
868204021609572
868204021616387
868204021614598
868204021609564
868204021613988
868204021440903
868204021614069
868204021614176
868204021608418
868204021614168
868204021441331
868204021614119
868204021441422
868204021614150
868204021609515
868204021614093
868204021609531
868204021616346
868204021613848
868204021609622
868204021614143
868204021609390
868204021616494
868204021608574
868204021616445
868204021616460
868204021615710
868204021441414
868204021441646
868204021616395
868204021613996
868204021609473
868204021609556
868204021616338
868204021441562
868204021441620
868204021616163
868204021442735
868204021610984
868204021610885
868204021610877
868204021611214
868204021611412
868204021611461
868204021611248
868204021611388
868204021441703
868204021440820
868204021441521
868204021611073
868204021611172
868204021611131
868204021441364
868204021441745
868204021439293
868204021441695
868204021441588
868204021611180
868204021611362
868204021440929
868204021609770
868204021610042
868204021609499
868204021609994
868204021610018
868204021609895
868204021012074
868204021616916
868204021616403
868204021616643
868204021440440
868204021616676
868204021616239
868204021616924
868204021616791
868204021616957
868204021609952
868204021612899
868204021613046
868204021612808
868204021612618
868204021612428
868204021612592
868204021612634
868204021612543
868204021612576
868204021441836
868204021442339
868204021442180
868204021442354
868204021442115
868204021442131
868204021442537
868204021441992
868204021442370
868204021442388
868204021611347
868204021614184
868204021614283
868204021614317
868204021613236
868204021614127
868204021613590
868204021614218
868204021613616
868204021614135
353760084025834
353760084025024
353760084079294
351885069334901
868204021122329 
868204021121552
868204021016430
868204021439541
868204021446330
868204021171912
358242070360488
868204021446298
860319030688553
868204021439459
868204021171904
358450074153144
868204021122022
868204021266399
354077057169625
868204021122329
868204021614416
868204021439533
868204021171441
358295062322684
868204021171300
868204021266639
868204021122626
860319030684099
868204021266936
868204021172944
868204021172076
358450075811864
868204021615827
868204021612865
868204021612907
868204021612725
868204021612774
868204021612824
868204021612873
868204021612857
868204021612840
868204021611685
868204021611636
868204021611875
868204021611644
868204021611651
868204021613582
868204021615884
868204021613111
868204021611966
868204021610851
868204021611677
868204021612881
868204021611727
868204021614077
868204021612154
868204021612410
868204021612212
868204021612469
868204021615504
868204021613186
868204021615371
868204021612980
868204021615447
868204021613145
868204021615496
868204021613194
868204021613137
868204021615488
868204021442073
868204021442016
868204021440986
868204021440879
868204021441976
868204021442487
868204021612352
868204021612477
868204021615215
868204021613202
868204021615124
868204021613087
868204021613152
868204021615397
868204021615223
868204021612691
868204021613004
868204021615512
868204021442248
868204021442164
868204021442826
868204021442859
868204021442107
868204021609481
868204021442297
868204021440978
868204021609861
868204021609911
868204021609903
868204021609408
868204021609887
868204021609838
868204021609846
868204021609853
868204021615876
868204021611545
868204021611560
868204021611479
868204021613707
868204021702260
868204021613723
868204021611628
868204021613749
868204021613699
868204021613764
868204021610257
868204021613129
868204021610141
868204022446446
868204021610232
868204021613897
868204021610224
868204021613905
868204021611610
868204021610208
868204021611701
868204021610265
868204021611768
868204021610273
868204021611750
868204021610067
868204021611842
868204021610216
868204021611818
868204021610299
868204021614044
868204021612535
868204021611891
868204021613681
868204021613640
868204021612519
868204021612568
868204021609382
868204021609440
868204021614192
868204021609374
868204021608541
868204021609283
868204021608665
868204021608681
868204021609465
868204021608525
868204021609457
868204021609234
868204021443055
868204021610281
868204021610364
868204021610331
868204021610315
868204021610372
868204021610307
868204021609259
868204021610398
868204021610356
868204021613962
868204021615850
868204021615868
868204021615843
868204021615835
868204021614358
868204021613814
868204021613954
868204021613822
868204021613327
868204021614325
868204021613756
868204021614309
868204021613889
868204021614051
868204021614242
868204021614036
868204021613806
868204021613715
868204021613947
868204021613830
868204021441893
868204021616122
868204021616056
868204021615819
868204021613483
868204021613541
868204021615942
868204021615918
868204020775812
868204021437222
868204021613301
868204021613285
868204021613558
868204021613442
868204021613251
868204021613061
868204021612758
868204021613293
868204021615181
868204021613079
868204021615207
868204021616015
868204021615074
868204021616148
868204021615066
868204021615165
868204021615157
868204021615967
868204021612584
868204021614978
868204021616114
868204021615140
868204021616023
868204021615934
868204021614952
868204021612915
868204022439862
868204021613533
868204021616221
868204021612998
868204021616379
868204021613376
868204021617039
868204021613210
868204021172985
868204021173181
868204021613103
868204021613228
868204021613509
868204021613517
868204021613244
868204021616429
868204021616700
868204021616452
868204021616437
868204021617237
868204021616833
868204021613418
868204021609119
868204021608434
868204021609176
868204021609168
868204021609200
868204021609184
868204021609127
868204021608715
868204021609135
868204021609051
868204021614994
868204021614846
868204021442768
868204021442255
868204021614903
868204021614895
868204021614820
868204021442784
868204021442750
868204021614861
356808070699331
868204021700561
868204021173199
358450073064748
868204021615009
868204021613491
868204021614887
868204021614853
868204021441463
868204021614226
868204021442206
868204021442669
868204021442644
868204021442842
868204021614721
868204021614945
868204021614762
868204021614689
868204021613665
868204021614812
868204021614788
868204021614937
868204021614804
868204021614838
868204021062129
866204021730238
868204021122808
868204021733703
359980066412552
868204021016695
868204021730642
868204021730444
359980066275769
868204021733836
868204021440184
868204021730584
868204021440622
868204021031827
868204021063010
359980066412958
358242070391764
868204021060768
868204021440127
868204021440168
868204021170872
868204021440994
868204021781629
868204021440788
358242070670704
358242070495128
860319031282075
352937087110414
352937087116320
352937086935688
868204021693022 
868204021617450
868204021271589
868204021013163
868204021440192
868204021735757
868204021733356
868204022446131
868204022154305
868204022310469
353919027001961
868204022446271
868204021609945
868204022445190
868204021609580
47Q6R16B02001478
359276065893367
352937087116536
354361084578309
352937087114119
352937087116593
868204021616684
868204021616742
868204021616692
868204021614432
868204021613871
357812080091488
358732012495343
868204022190267
868204022446339
868204021034888
868204021440549
868204021440499
868204021613632
359275065225927
358242070498312
353346053958682
352937087112972
352937087110307
352937087015902
352937086931042
868204021616718
868204021092274
868204021613350
358242070823352
868204022446594
868204021614747
868204022446412
868204021613426
868204022443542
357812082645992
357812082656650
357812082664357
868204022158538
868204022445224
868204021740328
868204021120851
355595072814700
352999064873828
868204022192057
352937086966824
868204021616569
868204021614713
868204021616551
868204020433313
357823071415362
868204021011316
868204021270334
358450079565805
868204021611784
868204021776579
868204021614614
353919026880757
868204020739040
868204021776728
357812082653731
868204021120992
868204021034045
868204021740674
868204022156870
868204021733810
868204021730238
868204021733364
353919027200486
352937087110950
352937087110141
868204022155997
868204021613343
868204021441315
359501062731793
868204022190226
358242070814559
868204022446388
868204021013213
868204022446149
868204022154370
868204022446321
358295062631266
868204021039333
358450077158926
868204021443568
868204022190572
352937087116213
352937086966766
352937087112915
868204021614705
868204020434840
352937086930887
868204021613178
868204021613277
868204021017685
868204020776851
868204021693022
868204021736201
868204022154578
868204021732929
357812082663110
358242070828328
358242070829078
868204022445422
860319031280814
356029051973815
358295062635119
359760076525969
868204021440606
868204021701460
868204021169957
359274063074817
868204022189350
352937086961791
352937086959480
868204021616726
868204021616510
868204021036164
868204021613400
868204021613368
868204021613012
868204021613269
868204021616783
868204021013270
868204022187164
357535065031050
868204021735989
868204021011217
868204021014104
868204022446347
868204022446206
868204021443642
357535064949740
868204021733513
352937086930994
352937086930853
352937086930952
868204021616544
868204021614796
868204021616734
868204021734446
868204021613392
353919027001618
868204022446362
868204022446305
868204022154065
898204022154370
868204022446123
353919027001836
359760077514871
868204022446263
357812082662450
357812082646339
357812082661742
868204022444086
358732012500670
868204021614457
868204022440126
868204022241375
868204022153729
357812087603889
868204022436926
868204023030231
868204022439466
868204022420730
868204021736672
353760084023425
353760084037821
353760084072653
353760084112079
353760084078775
353760084372400
353760084095076
353760084111055
353760083901571
353760083899684
353760084159203
353760083947574
353760084112020
353760084111659
353760084050402
353760084077330
353760084050246
353760084076019
353760084024381
353760084072372
353760084080052
353760083880288
353760084373028
353760084025008
868204022157449
358732012500647
868204022443484
868204022238771
868204022158751
868204021034144
863573030092540
868204021780456
358450078825929
868204021613467
357812080604488
355240080845087
868204023029647
868204022420805
868204022161581
868204022438690
868204021735401
868204021613574
357359053542774
353760084078544
353760083947533
353760084372913
353760084101338
353760083942211
353760084045352
353760084042946
353760084050212
358732012500654
868204022222649
868204021740054
868204022439953
868204021440507
868204022438724
868204022158249
868204022441371
356384072103607
868204022437825
868204022438005
868204023030215
868204022439623
868204022162167
868204022438112
868204021733265
868204022629108
355240081090881
353760083899502
353760084072455
353760083899031
353760084098484
353760083899593
353760083937989
353760084039462
353760084144486
353760084024068
353760084024928
353760083899221
353760084162488
353760083938714
353760084022039
868204022443567
868204021784995
868204022306111
868204021440481
868204022440001
866735024929832
868204022239981
868204022442932
868204022419112
868204021780365
868204021612014
356808070703067
355240081350202
868204022436918
868204022437544
868204022439680
868204022439698
863737030604980
868204022420383
868204022629009
355240080321626
355240080147120
359044061865643
353760084075649
353760083947392
868204022399140
358732012500597
358295062324250
868204021035646
868204022439441
356029050894863
359501062462621
868204022412844
357812082053833
868204021439780
868204021439236
868204022436819
868204022436736
868204022245194
357798077840385
868204021122246
868204022403371
353760084087339
353760084022054
353760084044751
352937087110521
352937086959720
352937087116619
352937087113046
352937087116460
353760083943938
353760083944027
353760084023938
357729056558441
353760084134107
353760084250416
353760084076571
353760084023821
868204022159122
356968067562387
868204020775416
359501068124142
868204022153737
868204022437643
868204023030561
868204022420813
868204022629314
86820421615397
869758009541478
863737030600913
358242070815788
354016076552601
353760083899585
868204022399330
353760084022328
353760083945933
353760084025826
353760084133919
868204022158512
353760084201682
353760084111634
353760084024258
353760083935975
353760084074386
353760084111824
353760084079757
35376008409499
353760084111600
353760084073545
358732012500639
868204021439632
156991796875043
868204022420136
868204021780563
868204021062335
868204022153380
868204023030413
355240081368410
868204022439730
868204022244247
868204023028698
868204021740310
868204021733562
353760084024167
353760083946527
352937087112964
353760084075961
353760084087446
353760084102500
353760084105164
353760084099706
353760084072711
353760084250077
353760084104647
353760084105446
353760084159955
353760084073735
353760083947731
353760083947285
860319031465654
868204022157662
353760084023219
356808072038017
868204022224124
868204022159650
000000000000000
357812088675951
868204021733323
868204022309768
868204022409295
353316092922296
868204022409808
868204022409337
