5446;353760084077330
5447;353760084050246
5448;353760084076019
5449;353760084024381
5450;353760084072372
5451;353760084080052
5452;353760083880288
5453;353760084373028
5454;353760084025008
5462;868204022157449
4162;358732012500647
4222;868204022443484
4303;868204022238771
4322;868204022158751
4385;868204021034144
4422;863573030092540
4662;868204021780456
4722;358450078825929
4723;868204021613467
4783;357812080604488
4862;355240080845087
4922;868204023029647
4963;868204022420805
5062;868204022161581
5164;868204022438690
5202;868204021735401
5242;868204021613574
5262;357359053542774
5345;353760084078544
5390;353760083947533
5415;353760084372913
5420;353760084101338
5429;353760083942211
5431;353760084045352
5441;353760084042946
5443;353760084050212
4164;358732012500654
4302;868204022222649
4304;868204021740054
4542;868204022439953
4543;868204021440507
4563;868204022438724
4582;868204022158249
4682;868204022441371
4742;356384072103607
4802;868204022437825
4822;868204022438005
4902;868204023030215
4907;868204022439623
4923;868204022162167
4982;868204022438112
4983;868204021733265
5004;868204022629108
5122;355240081090881
5344;353760083899502
5353;353760084072455
5362;353760083899031
5367;353760084098484
5383;353760083899593
5385;353760083937989
5391;353760084039462
5400;353760084144486
5403;353760084024068
5412;353760084024928
5417;353760083899221
5433;353760084162488
5434;353760083938714
5437;353760084022039
4223;868204022443567
4242;868204021784995
4282;868204022306111
4383;868204021440481
4402;868204022440001
4442;866735024929832
4503;868204022239981
4562;868204022442932
4603;868204022419112
4663;868204021780365
4724;868204021612014
4762;356808070703067
4864;355240081350202
4883;868204022436918
4884;868204022437544
4906;868204022439680
4910;868204022439698
4942;863737030604980
4964;868204022420383
5002;868204022629009
5123;355240080321626
5124;355240080147120
5222;359044061865643
5352;353760084075649
5354;353760083947392
5359;868204022399140
4163;358732012500597
4202;358295062324250
4382;868204021035646
4386;868204022439441
4404;356029050894863
4462;359501062462621
4522;868204022412844
4642;357812082053833
4702;868204021439780
4706;868204021439236
4882;868204022436819
4886;868204022436736
4966;868204022245194
5005;357798077840385
5162;868204021122246
5182;868204022403371
5350;353760084087339
5351;353760084022054
5356;353760084044751
5361;352937087110521
5363;352937086959720
5364;352937087116619
5365;352937087113046
5368;352937087116460
5382;353760083943938
5384;353760083944027
5386;353760084023938
5388;357729056558441
5392;353760084134107
5394;353760084250416
5395;353760084076571
5396;353760084023821
4323;868204022159122
4342;356968067562387
4362;868204020775416
4622;359501068124142
4704;868204022153737
4885;868204022437643
4904;868204023030561
4962;868204022420813
5003;868204022629314
5082;869758009541478
5102;863737030600913
5142;358242070815788
5322;354016076552601
5355;353760083899585
5357;868204022399330
5358;353760084022328
5369;353760083945933
5398;353760084025826
5399;353760084133919
5401;868204022158512
5402;353760084201682
5404;353760084111634
5405;353760084024258
5406;353760083935975
5407;353760084074386
5408;353760084111824
5409;353760084079757
5414;353760084111600
5416;353760084073545
4182;358732012500639
4384;868204021439632
4482;156991796875043
4602;868204022420136
4664;868204021780563
4703;868204021062335
4707;868204022153380
4842;868204023030413
4863;355240081368410
4908;868204022439730
4909;868204022244247
5042;868204023028698
5282;868204021740310
5302;868204021733562
5347;353760084024167
5349;353760083946527
5360;352937087112964
5387;353760084075961
5389;353760084087446
5418;353760084102500
5419;353760084105164
5421;353760084099706
5424;353760084072711
5425;353760084250077
5426;353760084104647
5427;353760084105446
5428;353760084159955
5430;353760084073735
5435;353760083947731
5436;353760083947285
5524;860319031465654
5522;868204022157662
5482;353760084023219
5502;356808072038017
5525;868204022224124
5523;868204022159650
5529;000000000000000
5566;357812088675951
5589;868204021733323
5546;868204022309768
5588;868204022409295
5547;353316092922296
5586;868204022409808
5587;868204022409337
